RVMLabs/lab2/RV32IM/tb_top.vcd
$date
	Sat May 10 10:30:08 2025
$end
$version
	Icarus Verilog
$end
$timescale
	1ns
$end
$scope module tb_top $end
$var wire 32 ! debug [31:0] $end
$var reg 1 " clk $end
$var reg 1 # rst $end
$scope module dut $end
$var wire 1 " clk $end
$var wire 32 $ debug [31:0] $end
$var wire 1 # rst $end
$var wire 1 % take $end
$var wire 32 & sel_alu_src_b [31:0] $end
$var wire 32 ' sel_alu_src_a [31:0] $end
$var wire 5 ( rs2_addr [4:0] $end
$var wire 32 ) rs2 [31:0] $end
$var wire 5 * rs1_addr [4:0] $end
$var wire 32 + rs1 [31:0] $end
$var wire 2 , result_mux [1:0] $end
$var wire 1 - reg_write $end
$var wire 5 . rd_addr [4:0] $end
$var wire 32 / rd [31:0] $end
$var wire 7 0 opcode [6:0] $end
$var wire 1 1 mem_write $end
$var wire 32 2 inst [31:0] $end
$var wire 32 3 immediate [31:0] $end
$var wire 32 4 data [31:0] $end
$var wire 3 5 branch_op [2:0] $end
$var wire 1 6 branch $end
$var wire 1 7 alu_src_b $end
$var wire 1 8 alu_src_a $end
$var wire 6 9 alu_op [5:0] $end
$var reg 32 : pc [31:0] $end
$var reg 32 ; result [31:0] $end
$scope module alu $end
$var wire 32 < i_a [31:0] $end
$var wire 32 = i_b [31:0] $end
$var wire 6 > i_alu_op [5:0] $end
$var reg 32 ? o_c [31:0] $end
$upscope $end
$scope module b $end
$var wire 3 @ i_branch_op [2:0] $end
$var wire 1 6 i_branch $end
$var wire 32 A i_b [31:0] $end
$var wire 32 B i_a [31:0] $end
$var reg 1 % o_take $end
$upscope $end
$scope module dec $end
$var wire 7 C o_opcode [6:0] $end
$var wire 7 D opcode [6:0] $end
$var wire 5 E o_rs2_addr [4:0] $end
$var wire 5 F o_rs1_addr [4:0] $end
$var wire 5 G o_rd_addr [4:0] $end
$var wire 32 H i_inst [31:0] $end
$var wire 7 I funct_7 [6:0] $end
$var wire 3 J funct_3 [2:0] $end
$var reg 6 K o_alu_op [5:0] $end
$var reg 1 8 o_alu_src_a $end
$var reg 1 7 o_alu_src_b $end
$var reg 1 6 o_branch $end
$var reg 3 L o_branch_op [2:0] $end
$var reg 1 1 o_mem_write $end
$var reg 1 - o_reg_write $end
$var reg 2 M o_result_mux [1:0] $end
$upscope $end
$scope module dmem $end
$var wire 10 N i_addr [9:0] $end
$var wire 1 " i_clk $end
$var wire 1 1 i_we $end
$var wire 32 O o_data [31:0] $end
$var wire 32 P i_data [31:0] $end
$var parameter 32 Q MEM_SIZE $end
$var integer 32 R i [31:0] $end
$upscope $end
$scope module imem $end
$var wire 10 S addr [9:0] $end
$var parameter 32 T MEM_SIZE $end
$var reg 32 U inst [31:0] $end
$upscope $end
$scope module reg_file $end
$var wire 1 " i_clk $end
$var wire 32 V i_rd [31:0] $end
$var wire 5 W i_rd_addr [4:0] $end
$var wire 5 X i_rs1_addr [4:0] $end
$var wire 5 Y i_rs2_addr [4:0] $end
$var wire 1 # i_rst $end
$var wire 1 - i_we $end
$var wire 32 Z o_rs1 [31:0] $end
$var wire 32 [ o_rs2 [31:0] $end
$var integer 32 \ i [31:0] $end
$upscope $end
$scope module sign_ext $end
$var wire 32 ] i_inst [31:0] $end
$var wire 7 ^ i_opcode [6:0] $end
$var reg 32 _ immediate_extended [31:0] $end
$upscope $end
$upscope $end
$upscope $end
$enddefinitions $end
$comment Show the parameter values. $end
$dumpall
b10000000000 T
b10000000000 Q
$end
#0
$dumpvars
b0 _
b10011 ^
b10011 ]
b100000 \
b0 [
b0 Z
b0 Y
b0 X
b0 W
b0 V
b10011 U
b0 S
b10000000000 R
b0 P
b1101100011011000110010101001000 O
b0 N
b0 M
b0 L
b11001 K
b0 J
b0 I
b10011 H
b0 G
b0 F
b0 E
b10011 D
b10011 C
b0 B
b0 A
b0 @
b0 ?
b11001 >
b0 =
b0 <
b0 ;
b0 :
b11001 9
08
17
06
b0 5
b1101100011011000110010101001000 4
b0 3
b10011 2
01
b10011 0
b0 /
b0 .
1-
b0 ,
b0 +
b0 *
b0 )
b0 (
b0 '
b0 &
0%
b0 $
1#
0"
b0 !
$end
#5
b100 S
b100 :
0#
1"
#10
0"
#15
b11 N
b0xx !
b0xx $
b11 ;
b11 V
b11 /
b11 ?
b11 &
b11 =
b11 (
b11 E
b11 Y
b110 .
b110 G
b110 W
1-
17
b11 3
b11 _
b1100000000001100010011 2
b1100000000001100010011 H
b1100000000001100010011 U
b1100000000001100010011 ]
b1000 S
b1000 :
1"
#20
0"
#25
b1101111011101110010000001101111 4
b1101111011101110010000001101111 O
b100 N
b0x00 !
b0x00 $
b100 ;
b100 V
b100 /
b100 ?
b100 &
b100 =
b100 (
b100 E
b100 Y
b111 .
b111 G
b111 W
1-
17
b100 3
b100 _
b10000000000001110010011 2
b10000000000001110010011 H
b10000000000001110010011 U
b10000000000001110010011 ]
b1100 S
b1100 :
1"
#30
0"
#35
b1101100011011000110010101001000 4
b1101100011011000110010101001000 O
b1 N
b0x !
b0x $
b1 ;
b1 V
b1 /
b1 ?
b1 &
b1 =
b1 (
b1 E
b1 Y
b11100 .
b11100 G
b11100 W
1-
17
b1 3
b1 _
b100000000111000010011 2
b100000000111000010011 H
b100000000111000010011 U
b100000000111000010011 ]
b10000 S
b10000 :
1"
#40
0"
#45
b101000001101 4
b101000001101 O
b100000 N
b0x00000 !
b0x00000 $
b100000 ;
b100000 V
b10100 '
b10100 <
b100000 /
b100000 ?
b100 +
b100 B
b100 Z
b111 *
b111 F
b111 X
18
16
b1100 &
b1100 =
b1000 (
b1000 E
b1000 Y
b1100 .
b1100 G
b1100 W
b1100011 0
b1100011 C
b1100011 ^
b1100011 D
0-
17
b1100 3
b1100 _
b100000111000011001100011 2
b100000111000011001100011 H
b100000111000011001100011 U
b100000111000011001100011 ]
b10100 S
b10100 :
1"
#50
0"
#55
b1 +
b1 B
b1 Z
b11100 *
b11100 F
b11100 X
b110000 9
b110000 >
b110000 K
1-
b11 &
b11 =
b1101100011011000110010101001000 4
b1101100011011000110010101001000 O
b11 )
b11 A
b11 P
b11 [
b110 (
b110 E
b110 Y
b11100 .
b11100 G
b11100 W
b1 I
b110011 0
b110011 C
b110011 ^
b110011 D
07
08
06
b11111111111111111111111111111111 3
b11111111111111111111111111111111 _
b11 N
b0xx !
b0xx $
b11 ;
b11 V
b10011011100000111000110011 2
b10011011100000111000110011 H
b10011011100000111000110011 U
b10011011100000111000110011 ]
b11 /
b11 ?
b11000 S
b1 '
b1 <
b11000 :
1"
#60
0"
#65
b11111111111111111111111111111111 &
b11111111111111111111111111111111 =
b111 *
b111 F
b111 X
17
b1101100011011000110010101001000 4
b1101100011011000110010101001000 O
b0 )
b0 A
b0 P
b0 [
b11111 (
b11111 E
b11111 Y
b111 .
b111 G
b111 W
b1111111 I
b10011 0
b10011 C
b10011 ^
b10011 D
1-
b11001 9
b11001 >
b11001 K
b11 N
b0xx !
b0xx $
b11 ;
b11 V
b11111111111100111000001110010011 2
b11111111111100111000001110010011 H
b11111111111100111000001110010011 U
b11111111111100111000001110010011 ]
b11 /
b11 ?
b11100 S
b100 '
b100 <
b11100 :
b100 +
b100 B
b100 Z
1"
#70
0"
#75
b100000011100110111001001100101 4
b100000011100110111001001100101 O
1%
b1 5
b1 @
b1 L
18
16
b11111111111111111111111111111000 &
b11111111111111111111111111111000 =
b11000 N
b0xx000 !
b0xx000 $
b11000 ;
b11000 V
b0 (
b0 E
b0 Y
b11001 .
b11001 G
b11001 W
b1 J
b1100011 0
b1100011 C
b1100011 ^
b1100011 D
0-
17
b11111111111111111111111111111000 3
b11111111111111111111111111111000 _
b11000 /
b11000 ?
b11111110000000111001110011100011 2
b11111110000000111001110011100011 H
b11111110000000111001110011100011 U
b11111110000000111001110011100011 ]
b100000 '
b100000 <
b100000 S
b11 +
b11 B
b11 Z
b100000 :
1"
#80
0"
#85
b11100 *
b11100 F
b11100 X
b110000 9
b110000 >
b110000 K
1-
0%
b11 &
b11 =
b100001011001000110110001110010 4
b100001011001000110110001110010 O
b11 )
b11 A
b11 P
b11 [
b110 (
b110 E
b110 Y
b11100 .
b11100 G
b11100 W
b0 J
b1 I
b110011 0
b110011 C
b110011 ^
b110011 D
07
08
b0 5
b0 @
b0 L
06
b11111111111111111111111111111111 3
b11111111111111111111111111111111 _
b1001 N
b0x00x !
b0x00x $
b1001 ;
b1001 V
b10011011100000111000110011 2
b10011011100000111000110011 H
b10011011100000111000110011 U
b10011011100000111000110011 ]
b1001 /
b1001 ?
b11000 S
b11 '
b11 <
b11000 :
1"
#90
0"
#95
b1101100011011000110010101001000 4
b1101100011011000110010101001000 O
b11111111111111111111111111111111 &
b11111111111111111111111111111111 =
b111 *
b111 F
b111 X
17
b10 N
b0x0 !
b0x0 $
b10 ;
b10 V
b0 )
b0 A
b0 P
b0 [
b11111 (
b11111 E
b11111 Y
b111 .
b111 G
b111 W
b1111111 I
b10011 0
b10011 C
b10011 ^
b10011 D
1-
b11001 9
b11001 >
b11001 K
b10 /
b10 ?
b11111111111100111000001110010011 2
b11111111111100111000001110010011 H
b11111111111100111000001110010011 U
b11111111111100111000001110010011 ]
b11 '
b11 <
b11100 S
b11 +
b11 B
b11 Z
b11100 :
1"
#100
0"
#105
b100000011100110111001001100101 4
b100000011100110111001001100101 O
1%
b1 5
b1 @
b1 L
18
16
b11111111111111111111111111111000 &
b11111111111111111111111111111000 =
b0 (
b0 E
b0 Y
b11001 .
b11001 G
b11001 W
b1 J
b1100011 0
b1100011 C
b1100011 ^
b1100011 D
0-
17
b11111111111111111111111111111000 3
b11111111111111111111111111111000 _
b11000 N
b0xx000 !
b0xx000 $
b11000 ;
b11000 V
b11111110000000111001110011100011 2
b11111110000000111001110011100011 H
b11111110000000111001110011100011 U
b11111110000000111001110011100011 ]
b11000 /
b11000 ?
b100000 S
b100000 '
b100000 <
b100000 :
b10 +
b10 B
b10 Z
1"
#110
0"
#115
b1001 +
b1001 B
b1001 Z
b11100 *
b11100 F
b11100 X
b110000 9
b110000 >
b110000 K
1-
0%
b11 &
b11 =
b100000011100110111001001100101 4
b100000011100110111001001100101 O
b11 )
b11 A
b11 P
b11 [
b110 (
b110 E
b110 Y
b11100 .
b11100 G
b11100 W
b0 J
b1 I
b110011 0
b110011 C
b110011 ^
b110011 D
07
08
b0 5
b0 @
b0 L
06
b11111111111111111111111111111111 3
b11111111111111111111111111111111 _
b11011 N
b0xx0xx !
b0xx0xx $
b11011 ;
b11011 V
b10011011100000111000110011 2
b10011011100000111000110011 H
b10011011100000111000110011 U
b10011011100000111000110011 ]
b11011 /
b11011 ?
b11000 S
b1001 '
b1001 <
b11000 :
1"
#120
0"
#125
b11111111111111111111111111111111 &
b11111111111111111111111111111111 =
b111 *
b111 F
b111 X
17
b1101100011011000110010101001000 4
b1101100011011000110010101001000 O
b0 )
b0 A
b0 P
b0 [
b11111 (
b11111 E
b11111 Y
b111 .
b111 G
b111 W
b1111111 I
b10011 0
b10011 C
b10011 ^
b10011 D
1-
b11001 9
b11001 >
b11001 K
b1 N
b0x !
b0x $
b1 ;
b1 V
b11111111111100111000001110010011 2
b11111111111100111000001110010011 H
b11111111111100111000001110010011 U
b11111111111100111000001110010011 ]
b1 /
b1 ?
b11100 S
b10 '
b10 <
b11100 :
b10 +
b10 B
b10 Z
1"
#130
0"
#135
b100000011100110111001001100101 4
b100000011100110111001001100101 O
1%
b1 5
b1 @
b1 L
18
16
b11111111111111111111111111111000 &
b11111111111111111111111111111000 =
b11000 N
b0xx000 !
b0xx000 $
b11000 ;
b11000 V
b0 (
b0 E
b0 Y
b11001 .
b11001 G
b11001 W
b1 J
b1100011 0
b1100011 C
b1100011 ^
b1100011 D
0-
17
b11111111111111111111111111111000 3
b11111111111111111111111111111000 _
b11000 /
b11000 ?
b11111110000000111001110011100011 2
b11111110000000111001110011100011 H
b11111110000000111001110011100011 U
b11111110000000111001110011100011 ]
b100000 '
b100000 <
b100000 S
b1 +
b1 B
b1 Z
b100000 :
1"
#140
0"
#145
b11011 +
b11011 B
b11011 Z
b11100 *
b11100 F
b11100 X
b110000 9
b110000 >
b110000 K
1-
0%
b11 &
b11 =
b0 4
b0 O
b11 )
b11 A
b11 P
b11 [
b110 (
b110 E
b110 Y
b11100 .
b11100 G
b11100 W
b0 J
b1 I
b110011 0
b110011 C
b110011 ^
b110011 D
07
08
b0 5
b0 @
b0 L
06
b11111111111111111111111111111111 3
b11111111111111111111111111111111 _
b1010001 N
b0x0x000x !
b0x0x000x $
b1010001 ;
b1010001 V
b10011011100000111000110011 2
b10011011100000111000110011 H
b10011011100000111000110011 U
b10011011100000111000110011 ]
b1010001 /
b1010001 ?
b11000 S
b11011 '
b11011 <
b11000 :
1"
#150
0"
#155
b1101100011011000110010101001000 4
b1101100011011000110010101001000 O
b11111111111111111111111111111111 &
b11111111111111111111111111111111 =
b111 *
b111 F
b111 X
17
b0 N
b0 !
b0 $
b0 ;
b0 V
b0 )
b0 A
b0 P
b0 [
b11111 (
b11111 E
b11111 Y
b111 .
b111 G
b111 W
b1111111 I
b10011 0
b10011 C
b10011 ^
b10011 D
1-
b11001 9
b11001 >
b11001 K
b0 /
b0 ?
b11111111111100111000001110010011 2
b11111111111100111000001110010011 H
b11111111111100111000001110010011 U
b11111111111100111000001110010011 ]
b1 '
b1 <
b11100 S
b1 +
b1 B
b1 Z
b11100 :
1"
#160
0"
#165
b1 5
b1 @
b1 L
18
16
b11111111111111111111111111111000 &
b11111111111111111111111111111000 =
b100000011100110111001001100101 4
b100000011100110111001001100101 O
b0 (
b0 E
b0 Y
b11001 .
b11001 G
b11001 W
b1 J
b1100011 0
b1100011 C
b1100011 ^
b1100011 D
0-
17
b11111111111111111111111111111000 3
b11111111111111111111111111111000 _
b11000 N
b0xx000 !
b0xx000 $
b11000 ;
b11000 V
b11111110000000111001110011100011 2
b11111110000000111001110011100011 H
b11111110000000111001110011100011 U
b11111110000000111001110011100011 ]
b11000 /
b11000 ?
b100000 S
b100000 '
b100000 <
b100000 :
b0 +
b0 B
b0 Z
1"
#170
0"
#175
b0 *
b0 F
b0 X
1-
b0 &
b0 =
b1101100011011000110010101001000 4
b1101100011011000110010101001000 O
b0 .
b0 G
b0 W
b0 J
b0 I
b10011 0
b10011 C
b10011 ^
b10011 D
17
08
b0 5
b0 @
b0 L
06
b0 3
b0 _
b0 N
b0 !
b0 $
b0 ;
b0 V
b10011 2
b10011 H
b10011 U
b10011 ]
b0 /
b0 ?
b100100 S
b0 '
b0 <
b100100 :
1"
#180
0"
#185
b101000 S
b101000 :
1"
#190
0"
#195
b101100 S
b101100 :
1"
#200
0"
#205
b110000 S
b110000 :
1"
#210
0"
#215
b110100 S
b110100 :
1"
#220
0"
#225
b111000 S
b111000 :
1"
#230
0"
#235
b11111111111111111111111111111111 3
b11111111111111111111111111111111 _
b0 0
b0 C
b0 ^
b0 D
0-
07
b0 2
b0 H
b0 U
b0 ]
b111100 S
b111100 :
1"
#240
0"
#245
bx 4
bx O
bx N
bx !
bx $
bx ;
bx V
bx /
bx ?
bx '
bx <
bx &
bx =
bx +
bx B
bx Z
bx *
bx F
bx X
bx )
bx A
bx P
bx [
bx (
bx E
bx Y
bx .
bx G
bx W
bx J
bx I
bx 0
bx C
bx ^
bx D
bx 2
bx H
bx U
bx ]
b1000000 S
b1000000 :
1"
