RVMLabs/lab2/RV32I_internal_memories/tb_SYS.vcd
$date
	Sat Nov 16 15:01:40 2024
$end
$version
	Icarus Verilog
$end
$timescale
	1ps
$end
$scope module tb_SYS $end
$var reg 1 ! clk $end
$var reg 1 " reset $end
$scope module uut $end
$var wire 32 # REGData1 [31:0] $end
$var wire 32 $ REGData2 [31:0] $end
$var wire 1 % TakeBranch $end
$var wire 1 ! clk $end
$var wire 32 & instruction [31:0] $end
$var wire 1 " reset $end
$var wire 32 ' nextPC [31:0] $end
$var wire 7 ( funct7 [6:0] $end
$var wire 3 ) funct3 [2:0] $end
$var wire 32 * Uimm [31:0] $end
$var wire 1 + System $end
$var wire 1 , Store $end
$var wire 5 - SourceRegister2 [4:0] $end
$var wire 5 . SourceRegister1 [4:0] $end
$var wire 32 / Simm [31:0] $end
$var wire 1 0 Load $end
$var wire 1 1 LUI $end
$var wire 32 2 Jimm [31:0] $end
$var wire 1 3 JALR $end
$var wire 1 4 JAL $end
$var wire 32 5 Iimm [31:0] $end
$var wire 5 6 DestinationRegister [4:0] $end
$var wire 1 7 Branch $end
$var wire 32 8 Bimm [31:0] $end
$var wire 1 9 AUIPC $end
$var wire 1 : ALUReg $end
$var wire 32 ; ALUOut [31:0] $end
$var wire 1 < ALUImmediate $end
$var reg 32 = PC [31:0] $end
$scope module alu $end
$var wire 32 > ALUREGVAl2 [31:0] $end
$var wire 32 ? ALUVAL1 [31:0] $end
$var wire 32 @ instruction [31:0] $end
$var wire 7 A funct7 [6:0] $end
$var wire 3 B funct3 [2:0] $end
$var wire 32 C Iimm [31:0] $end
$var wire 1 : ALUReg $end
$var wire 32 D ALUOperand2 [31:0] $end
$var wire 1 < ALUImmediate $end
$var reg 32 E ALUOut [31:0] $end
$upscope $end
$scope module decoder $end
$var wire 32 F instruction [31:0] $end
$var wire 7 G opcode [6:0] $end
$var wire 7 H funct7 [6:0] $end
$var wire 3 I funct3 [2:0] $end
$var wire 32 J Uimm [31:0] $end
$var wire 1 + System $end
$var wire 1 , Store $end
$var wire 5 K SourceRegister2 [4:0] $end
$var wire 5 L SourceRegister1 [4:0] $end
$var wire 32 M Simm [31:0] $end
$var wire 1 0 Load $end
$var wire 1 1 LUI $end
$var wire 32 N Jimm [31:0] $end
$var wire 1 3 JALR $end
$var wire 1 4 JAL $end
$var wire 32 O Iimm [31:0] $end
$var wire 5 P DestinationRegister [4:0] $end
$var wire 1 7 Branch $end
$var wire 32 Q Bimm [31:0] $end
$var wire 1 9 AUIPC $end
$var wire 1 : ALUReg $end
$var wire 1 < ALUImmediate $end
$upscope $end
$upscope $end
$upscope $end
$enddefinitions $end
$comment Show the parameter values. $end
$dumpall
$end
#10000
$dumpvars
b100000000000 Q
b1 P
b0 O
b0 N
b1 M
b0 L
b0 K
b0 J
b0 I
b0 H
b10011 G
b10010011 F
b0 E
b0 D
b0 C
b0 B
b0 A
b10010011 @
b0 ?
b0 >
b0 =
1<
b0 ;
0:
09
b100000000000 8
07
b1 6
b0 5
04
03
b0 2
01
00
b1 /
b0 .
b0 -
0,
0+
b0 *
b0 )
b0 (
b100 '
b10010011 &
0%
b0 $
b0 #
0"
0!
$end
#15000
b1 ;
b1 E
b1 D
b1000 '
b1 -
b1 K
b10 6
b10 P
b1 5
b1 C
b1 O
b10 /
b10 M
b10 8
b10 Q
b100000000000000000000 *
b100000000000000000000 J
b100000000000 2
b100000000000 N
b100000000000100010011 &
b100000000000100010011 @
b100000000000100010011 F
b100 =
1!
#20000
0!
#25000
b10 ;
b10 E
b10 D
b1100 '
b1 $
b1 >
b10 -
b10 K
b11 6
b11 P
b10 5
b10 C
b10 O
b11 /
b11 M
b100000000010 8
b100000000010 Q
b1000000000000000000000 *
b1000000000000000000000 J
b10 2
b10 N
b1000000000000110010011 &
b1000000000000110010011 @
b1000000000000110010011 F
b1000 =
1!
#30000
0!
#35000
b100 ;
b100 E
b10000 '
1:
0<
b110011 G
b10 #
b10 ?
b11 .
b11 L
b10 $
b10 >
b11 -
b11 K
b100 6
b100 P
b11 5
b11 C
b11 O
b100 /
b100 M
b100 8
b100 Q
b1100011000000000000000 *
b1100011000000000000000 J
b11000100000000010 2
b11000100000000010 N
b1100011000001000110011 &
b1100011000001000110011 @
b1100011000001000110011 F
b1100 =
1!
#40000
0!
#45000
b0 ;
b0 E
b0 D
b10100 '
b0 #
b0 ?
b0 .
b0 L
b0 $
b0 >
b0 -
b0 K
b101 6
b101 P
b0 5
b0 C
b0 O
b101 /
b101 M
b100000000100 8
b100000000100 Q
b0 *
b0 J
b0 2
b0 N
b1010110011 &
b1010110011 @
b1010110011 F
b10000 =
1!
#50000
0!
#55000
b11100 '
0:
14
b1101111 G
b1000 -
b1000 K
b1 6
b1 P
b1000 5
b1000 C
b1000 O
b1 /
b1 M
b100000000000 8
b100000000000 Q
b100000000000000000000000 *
b100000000000000000000000 J
b1000 2
b1000 N
b100000000000000011101111 &
b100000000000000011101111 @
b100000000000000011101111 F
b10100 =
1!
#60000
0!
#65000
b101 ;
b101 E
b101 D
1<
04
b10011 G
b101 -
b101 K
b101 6
b101 P
b101 5
b101 C
b101 O
b101 /
b101 M
b100000000100 8
b100000000100 Q
b10100000000000000000000 *
b10100000000000000000000 J
b100000000100 2
b100000000100 N
b100000 '
b10100000000001010010011 &
b10100000000001010010011 @
b10100000000001010010011 F
b11100 =
1!
#70000
0!
#75000
b100100 '
1:
0<
b110011 G
b110 .
b110 L
b110 6
b110 P
b110 /
b110 M
b110 8
b110 Q
b10100110000000000000000 *
b10100110000000000000000 J
b110000100000000100 2
b110000100000000100 N
b10100110000001100110011 &
b10100110000001100110011 @
b10100110000001100110011 F
b101 $
b101 >
b100000 =
1!
#80000
0!
#85000
b0 D
b101000 '
0:
1,
b100011 G
b10 )
b10 B
b10 I
b1 (
b1 A
b1 H
b1 .
b1 L
b0 $
b0 >
b10011 -
b10011 K
b0 6
b0 P
b110011 5
b110011 C
b110011 O
b100000 /
b100000 M
b100000 8
b100000 Q
b11001100001010000000000000 *
b11001100001010000000000000 J
b1010100000110010 2
b1010100000110010 N
b0 ;
b0 E
b11001100001010000000100011 &
b11001100001010000000100011 @
b11001100001010000000100011 F
b11000 #
b11000 ?
b100100 =
1!
#90000
0!
#95000
b101100 '
b11 (
b11 A
b11 H
b111 -
b111 K
b1100111 5
b1100111 C
b1100111 O
b1100000 /
b1100000 M
b1100000 8
b1100000 Q
b110011100001010000000000000 *
b110011100001010000000000000 J
b1010100001100110 2
b1010100001100110 N
b110011100001010000000100011 &
b110011100001010000000100011 @
b110011100001010000000100011 F
b101000 =
1!
#100000
0!
#105000
b110000 '
b1111 -
b1111 K
b1101111 5
b1101111 C
b1101111 O
b110111100001010000000000000 *
b110111100001010000000000000 J
b1010100001101110 2
b1010100001101110 N
b110111100001010000000100011 &
b110111100001010000000100011 @
b110111100001010000000100011 F
b101100 =
1!
#110000
0!
#115000
b110100 '
b10 (
b10 A
b10 H
b1001111 5
b1001111 C
b1001111 O
b1000000 /
b1000000 M
b1000000 8
b1000000 Q
b100111100001010000000000000 *
b100111100001010000000000000 J
b1010100001001110 2
b1010100001001110 N
b100111100001010000000100011 &
b100111100001010000000100011 @
b100111100001010000000100011 F
b110000 =
1!
#120000
0!
#125000
b111000 '
b1 (
b1 A
b1 H
b10011 -
b10011 K
b110011 5
b110011 C
b110011 O
b100000 /
b100000 M
b100000 8
b100000 Q
b11001100001010000000000000 *
b11001100001010000000000000 J
b1010100000110010 2
b1010100000110010 N
b11001100001010000000100011 &
b11001100001010000000100011 @
b11001100001010000000100011 F
b110100 =
1!
#130000
0!
#135000
b111100 '
b11 (
b11 A
b11 H
b111 -
b111 K
b1100111 5
b1100111 C
b1100111 O
b1100000 /
b1100000 M
b1100000 8
b1100000 Q
b110011100001010000000000000 *
b110011100001010000000000000 J
b1010100001100110 2
b1010100001100110 N
b110011100001010000000100011 &
b110011100001010000000100011 @
b110011100001010000000100011 F
b111000 =
1!
#140000
0!
#145000
b1000000 '
b1111 -
b1111 K
b1101111 5
b1101111 C
b1101111 O
b110111100001010000000000000 *
b110111100001010000000000000 J
b1010100001101110 2
b1010100001101110 N
b110111100001010000000100011 &
b110111100001010000000100011 @
b110111100001010000000100011 F
b111100 =
1!
#150000
0!
#155000
bx D
bx '
x:
x<
x7
x3
x4
x9
x1
x0
x,
x+
bx G
bx )
bx B
bx I
bx (
bx A
bx H
bx #
bx ?
bx .
bx L
bx $
bx >
bx -
bx K
bx 6
bx P
bx 5
bx C
bx O
bx /
bx M
bx0 8
bx0 Q
bx000000000000 *
bx000000000000 J
bx0 2
bx0 N
bx &
bx @
bx F
b1000000 =
1!
#160000
0!
#165000
bx =
1!
