RVMLabs/lab2/RV32I/tb_top.vcd
$date
	Fri May  9 17:31:51 2025
$end
$version
	Icarus Verilog
$end
$timescale
	1ns
$end
$scope module tb_top $end
$var wire 32 ! debug [31:0] $end
$var reg 1 " clk $end
$var reg 1 # rst $end
$scope module dut $end
$var wire 1 " clk $end
$var wire 32 $ debug [31:0] $end
$var wire 1 # rst $end
$var wire 1 % take $end
$var wire 32 & sel_alu_src_b [31:0] $end
$var wire 32 ' sel_alu_src_a [31:0] $end
$var wire 5 ( rs2_addr [4:0] $end
$var wire 32 ) rs2 [31:0] $end
$var wire 5 * rs1_addr [4:0] $end
$var wire 32 + rs1 [31:0] $end
$var wire 2 , result_mux [1:0] $end
$var wire 1 - reg_write $end
$var wire 5 . rd_addr [4:0] $end
$var wire 32 / rd [31:0] $end
$var wire 7 0 opcode [6:0] $end
$var wire 1 1 mem_write $end
$var wire 32 2 inst [31:0] $end
$var wire 32 3 immediate [31:0] $end
$var wire 32 4 data [31:0] $end
$var wire 3 5 branch_op [2:0] $end
$var wire 1 6 branch $end
$var wire 1 7 alu_src_b $end
$var wire 1 8 alu_src_a $end
$var wire 6 9 alu_op [5:0] $end
$var reg 32 : pc [31:0] $end
$var reg 32 ; result [31:0] $end
$scope module alu $end
$var wire 32 < i_a [31:0] $end
$var wire 32 = i_b [31:0] $end
$var wire 6 > i_alu_op [5:0] $end
$var reg 32 ? o_c [31:0] $end
$upscope $end
$scope module b $end
$var wire 3 @ i_branch_op [2:0] $end
$var wire 1 6 i_branch $end
$var wire 32 A i_b [31:0] $end
$var wire 32 B i_a [31:0] $end
$var reg 1 % o_take $end
$upscope $end
$scope module dec $end
$var wire 7 C o_opcode [6:0] $end
$var wire 7 D opcode [6:0] $end
$var wire 5 E o_rs2_addr [4:0] $end
$var wire 5 F o_rs1_addr [4:0] $end
$var wire 5 G o_rd_addr [4:0] $end
$var wire 32 H i_inst [31:0] $end
$var wire 7 I funct_7 [6:0] $end
$var wire 3 J funct_3 [2:0] $end
$var reg 6 K o_alu_op [5:0] $end
$var reg 1 8 o_alu_src_a $end
$var reg 1 7 o_alu_src_b $end
$var reg 1 6 o_branch $end
$var reg 3 L o_branch_op [2:0] $end
$var reg 1 1 o_mem_write $end
$var reg 1 - o_reg_write $end
$var reg 2 M o_result_mux [1:0] $end
$upscope $end
$scope module dmem $end
$var wire 10 N i_addr [9:0] $end
$var wire 1 " i_clk $end
$var wire 1 1 i_we $end
$var wire 32 O o_data [31:0] $end
$var wire 32 P i_data [31:0] $end
$var parameter 32 Q MEM_SIZE $end
$var integer 32 R i [31:0] $end
$upscope $end
$scope module imem $end
$var wire 10 S addr [9:0] $end
$var parameter 32 T MEM_SIZE $end
$var reg 32 U inst [31:0] $end
$upscope $end
$scope module reg_file $end
$var wire 1 " i_clk $end
$var wire 32 V i_rd [31:0] $end
$var wire 5 W i_rd_addr [4:0] $end
$var wire 5 X i_rs1_addr [4:0] $end
$var wire 5 Y i_rs2_addr [4:0] $end
$var wire 1 # i_rst $end
$var wire 1 - i_we $end
$var wire 32 Z o_rs1 [31:0] $end
$var wire 32 [ o_rs2 [31:0] $end
$var integer 32 \ i [31:0] $end
$upscope $end
$scope module sign_ext $end
$var wire 32 ] i_inst [31:0] $end
$var wire 7 ^ i_opcode [6:0] $end
$var reg 32 _ immediate_extended [31:0] $end
$upscope $end
$upscope $end
$upscope $end
$enddefinitions $end
$comment Show the parameter values. $end
$dumpall
b10000000000 T
b10000000000 Q
$end
#0
$dumpvars
b0 _
b10011 ^
b10011 ]
b100000 \
b0 [
b0 Z
b0 Y
b0 X
b0 W
b0 V
b10011 U
b0 S
b10000000000 R
b0 P
b1101100011011000110010101001000 O
b0 N
b0 M
b0 L
b11001 K
b0 J
b0 I
b10011 H
b0 G
b0 F
b0 E
b10011 D
b10011 C
b0 B
b0 A
b0 @
b0 ?
b11001 >
b0 =
b0 <
b0 ;
b0 :
b11001 9
08
17
06
b0 5
b1101100011011000110010101001000 4
b0 3
b10011 2
01
b10011 0
b0 /
b0 .
1-
b0 ,
b0 +
b0 *
b0 )
b0 (
b0 '
b0 &
0%
b0 $
1#
0"
b0 !
$end
#5
b100 S
b100 :
0#
1"
#10
0"
#15
b1101111011101110010000001101111 4
b1101111011101110010000001101111 O
b110 N
b0xx0 !
b0xx0 $
b110 ;
b110 V
b110 /
b110 ?
b110 &
b110 =
b110 (
b110 E
b110 Y
b110 .
b110 G
b110 W
1-
17
b110 3
b110 _
b11000000000001100010011 2
b11000000000001100010011 H
b11000000000001100010011 U
b11000000000001100010011 ]
b1000 S
b1000 :
1"
#20
0"
#25
b111 N
b0xxx !
b0xxx $
b111 ;
b111 V
b111 /
b111 ?
b111 &
b111 =
b111 (
b111 E
b111 Y
b111 .
b111 G
b111 W
1-
17
b111 3
b111 _
b11100000000001110010011 2
b11100000000001110010011 H
b11100000000001110010011 U
b11100000000001110010011 ]
b1100 S
b1100 :
b0 )
b0 A
b0 P
b0 [
1"
#30
0"
#35
b1101100011011000110010101001000 4
b1101100011011000110010101001000 O
b0 N
b0 !
b0 $
b0 ;
b0 V
b0 /
b0 ?
b0 &
b0 =
b0 (
b0 E
b0 Y
b11100 .
b11100 G
b11100 W
1-
17
b0 3
b0 _
b111000010011 2
b111000010011 H
b111000010011 U
b111000010011 ]
b10000 S
b0 )
b0 A
b0 P
b0 [
b10000 :
1"
#40
0"
#45
b101000001101 4
b101000001101 O
b100000 N
b0x00000 !
b0x00000 $
b100000 ;
b100000 V
b100000 /
b100000 ?
b100000 &
b100000 =
b1011 .
b1011 G
b1011 W
b1 I
1-
17
b100000 3
b100000 _
b10000000000000010110010011 2
b10000000000000010110010011 H
b10000000000000010110010011 U
b10000000000000010110010011 ]
b10100 S
b10100 :
1"
#50
0"
#55
b1101100011011000110010101001000 4
b1101100011011000110010101001000 O
b1 N
b0x !
b0x $
b1 ;
b1 V
b111 '
b111 <
b1 /
b1 ?
b111 +
b111 B
b111 Z
b111 *
b111 F
b111 X
b11101 9
b11101 >
b11101 K
b1 &
b1 =
b1 (
b1 E
b1 Y
b101 .
b101 G
b101 W
b111 J
b0 I
1-
17
b1 3
b1 _
b100111111001010010011 2
b100111111001010010011 H
b100111111001010010011 U
b100111111001010010011 ]
b11000 S
b11000 :
1"
#60
0"
#65
b10100 4
b10100 O
b11100 '
b11100 <
b100100 N
b0x00x00 !
b0x00x00 $
b100100 ;
b100100 V
b1 +
b1 B
b1 Z
b101 *
b101 F
b101 X
18
16
b100100 /
b100100 ?
b1000 &
b1000 =
b0 (
b0 E
b0 Y
b1000 .
b1000 G
b1000 W
b0 J
b1100011 0
b1100011 C
b1100011 ^
b1100011 D
0-
17
b11001 9
b11001 >
b11001 K
b1000 3
b1000 _
b101000010001100011 2
b101000010001100011 H
b101000010001100011 U
b101000010001100011 ]
b11100 S
b11100 :
1"
#70
0"
#75
b0 +
b0 B
b0 Z
b11100 *
b11100 F
b11100 X
1-
b110 &
b110 =
b1101111011101110010000001101111 4
b1101111011101110010000001101111 O
b110 )
b110 A
b110 P
b110 [
b110 (
b110 E
b110 Y
b11100 .
b11100 G
b11100 W
b110011 0
b110011 C
b110011 ^
b110011 D
07
08
06
b11111111111111111111111111111111 3
b11111111111111111111111111111111 _
b110 N
b0xx0 !
b0xx0 $
b110 ;
b110 V
b11011100000111000110011 2
b11011100000111000110011 H
b11011100000111000110011 U
b11011100000111000110011 ]
b110 /
b110 ?
b100000 S
b0 '
b0 <
b100000 :
1"
#80
0"
#85
b1 &
b1 =
b110 *
b110 F
b110 X
b1 3
b1 _
b100111 9
b100111 >
b100111 K
17
b101000001101 4
b101000001101 O
b0 )
b0 A
b0 P
b0 [
b1 (
b1 E
b1 Y
b110 .
b110 G
b110 W
b1 J
b10011 0
b10011 C
b10011 ^
b10011 D
1-
b1100 N
b0xx00 !
b0xx00 $
b1100 ;
b1100 V
b100110001001100010011 2
b100110001001100010011 H
b100110001001100010011 U
b100110001001100010011 ]
b1100 /
b1100 ?
b100100 S
b110 '
b110 <
b100100 :
b110 +
b110 B
b110 Z
1"
#90
0"
#95
b1101100011011000110010101001000 4
b1101100011011000110010101001000 O
b111 *
b111 F
b111 X
b11 N
b0xx !
b0xx $
b11 ;
b11 V
b111 .
b111 G
b111 W
b101 J
1-
17
b101001 9
b101001 >
b101001 K
b11 /
b11 ?
b100111101001110010011 2
b100111101001110010011 H
b100111101001110010011 U
b100111101001110010011 ]
b111 '
b111 <
b101000 S
b111 +
b111 B
b111 Z
b101000 :
1"
#100
0"
#105
b1100111011011100110111101101100 4
b1100111011011100110111101101100 O
b1011 *
b1011 F
b1011 X
b11111111111111111111111111111111 &
b11111111111111111111111111111111 =
b11111 (
b11111 E
b11111 Y
b1011 .
b1011 G
b1011 W
b0 J
b1111111 I
1-
17
b11001 9
b11001 >
b11001 K
b11111111111111111111111111111111 3
b11111111111111111111111111111111 _
b11111 N
b0xxxxx !
b0xxxxx $
b11111 ;
b11111 V
b11111111111101011000010110010011 2
b11111111111101011000010110010011 H
b11111111111101011000010110010011 U
b11111111111101011000010110010011 ]
b11111 /
b11111 ?
b101100 S
b100000 '
b100000 <
b101100 :
b100000 +
b100000 B
b100000 Z
1"
#110
0"
#115
b100000011100110111001001100101 4
b100000011100110111001001100101 O
1%
b1 5
b1 @
b1 L
18
16
b11111111111111111111111111101000 &
b11111111111111111111111111101000 =
b11000 N
b0xx000 !
b0xx000 $
b11000 ;
b11000 V
b0 (
b0 E
b0 Y
b1001 .
b1001 G
b1001 W
b1 J
b1100011 0
b1100011 C
b1100011 ^
b1100011 D
0-
17
b11111111111111111111111111101000 3
b11111111111111111111111111101000 _
b11000 /
b11000 ?
b11111110000001011001010011100011 2
b11111110000001011001010011100011 H
b11111110000001011001010011100011 U
b11111110000001011001010011100011 ]
b110000 '
b110000 <
b110000 S
b11111 +
b11111 B
b11111 Z
b110000 :
1"
#120
0"
#125
b11 +
b11 B
b11 Z
b111 *
b111 F
b111 X
b11101 9
b11101 >
b11101 K
1-
0%
b1 &
b1 =
b1101100011011000110010101001000 4
b1101100011011000110010101001000 O
b1 (
b1 E
b1 Y
b101 .
b101 G
b101 W
b111 J
b0 I
b10011 0
b10011 C
b10011 ^
b10011 D
17
08
b0 5
b0 @
b0 L
06
b1 3
b1 _
b1 N
b0x !
b0x $
b1 ;
b1 V
b100111111001010010011 2
b100111111001010010011 H
b100111111001010010011 U
b100111111001010010011 ]
b1 /
b1 ?
b11000 S
b11 '
b11 <
b11000 :
1"
#130
0"
#135
b10100 4
b10100 O
b11100 '
b11100 <
b100100 N
b0x00x00 !
b0x00x00 $
b100100 ;
b100100 V
b1 +
b1 B
b1 Z
b101 *
b101 F
b101 X
18
16
b100100 /
b100100 ?
b1000 &
b1000 =
b0 (
b0 E
b0 Y
b1000 .
b1000 G
b1000 W
b0 J
b1100011 0
b1100011 C
b1100011 ^
b1100011 D
0-
17
b11001 9
b11001 >
b11001 K
b1000 3
b1000 _
b101000010001100011 2
b101000010001100011 H
b101000010001100011 U
b101000010001100011 ]
b11100 S
b11100 :
1"
#140
0"
#145
b110 +
b110 B
b110 Z
b11100 *
b11100 F
b11100 X
1-
b1100 &
b1100 =
b1100001011010000110001100100000 4
b1100001011010000110001100100000 O
b1100 )
b1100 A
b1100 P
b1100 [
b110 (
b110 E
b110 Y
b11100 .
b11100 G
b11100 W
b110011 0
b110011 C
b110011 ^
b110011 D
07
08
06
b11111111111111111111111111111111 3
b11111111111111111111111111111111 _
b10010 N
b0x00x0 !
b0x00x0 $
b10010 ;
b10010 V
b11011100000111000110011 2
b11011100000111000110011 H
b11011100000111000110011 U
b11011100000111000110011 ]
b10010 /
b10010 ?
b100000 S
b110 '
b110 <
b100000 :
1"
#150
0"
#155
b100000011100110111001001100101 4
b100000011100110111001001100101 O
b1 &
b1 =
b110 *
b110 F
b110 X
b1 3
b1 _
b100111 9
b100111 >
b100111 K
17
b11000 N
b0xx000 !
b0xx000 $
b11000 ;
b11000 V
b0 )
b0 A
b0 P
b0 [
b1 (
b1 E
b1 Y
b110 .
b110 G
b110 W
b1 J
b10011 0
b10011 C
b10011 ^
b10011 D
1-
b11000 /
b11000 ?
b100110001001100010011 2
b100110001001100010011 H
b100110001001100010011 U
b100110001001100010011 ]
b1100 '
b1100 <
b100100 S
b1100 +
b1100 B
b1100 Z
b100100 :
1"
#160
0"
#165
b111 *
b111 F
b111 X
b1101100011011000110010101001000 4
b1101100011011000110010101001000 O
b111 .
b111 G
b111 W
b101 J
1-
17
b101001 9
b101001 >
b101001 K
b1 N
b0x !
b0x $
b1 ;
b1 V
b100111101001110010011 2
b100111101001110010011 H
b100111101001110010011 U
b100111101001110010011 ]
b1 /
b1 ?
b101000 S
b11 '
b11 <
b101000 :
b11 +
b11 B
b11 Z
1"
#170
0"
#175
b1100111011011100110111101101100 4
b1100111011011100110111101101100 O
b1011 *
b1011 F
b1011 X
b11111111111111111111111111111111 &
b11111111111111111111111111111111 =
b11110 N
b0xxxx0 !
b0xxxx0 $
b11110 ;
b11110 V
b11111 (
b11111 E
b11111 Y
b1011 .
b1011 G
b1011 W
b0 J
b1111111 I
1-
17
b11001 9
b11001 >
b11001 K
b11111111111111111111111111111111 3
b11111111111111111111111111111111 _
b11110 /
b11110 ?
b11111111111101011000010110010011 2
b11111111111101011000010110010011 H
b11111111111101011000010110010011 U
b11111111111101011000010110010011 ]
b11111 '
b11111 <
b101100 S
b11111 +
b11111 B
b11111 Z
b101100 :
1"
#180
0"
#185
b100000011100110111001001100101 4
b100000011100110111001001100101 O
1%
b1 5
b1 @
b1 L
18
16
b11111111111111111111111111101000 &
b11111111111111111111111111101000 =
b0 (
b0 E
b0 Y
b1001 .
b1001 G
b1001 W
b1 J
b1100011 0
b1100011 C
b1100011 ^
b1100011 D
0-
17
b11111111111111111111111111101000 3
b11111111111111111111111111101000 _
b11000 N
b0xx000 !
b0xx000 $
b11000 ;
b11000 V
b11111110000001011001010011100011 2
b11111110000001011001010011100011 H
b11111110000001011001010011100011 U
b11111110000001011001010011100011 ]
b11000 /
b11000 ?
b110000 S
b110000 '
b110000 <
b110000 :
b11110 +
b11110 B
b11110 Z
1"
#190
0"
#195
b1 +
b1 B
b1 Z
b111 *
b111 F
b111 X
b11101 9
b11101 >
b11101 K
1-
0%
b1 &
b1 =
b1101100011011000110010101001000 4
b1101100011011000110010101001000 O
b1 (
b1 E
b1 Y
b101 .
b101 G
b101 W
b111 J
b0 I
b10011 0
b10011 C
b10011 ^
b10011 D
17
08
b0 5
b0 @
b0 L
06
b1 3
b1 _
b1 N
b0x !
b0x $
b1 ;
b1 V
b100111111001010010011 2
b100111111001010010011 H
b100111111001010010011 U
b100111111001010010011 ]
b1 /
b1 ?
b11000 S
b1 '
b1 <
b11000 :
1"
#200
0"
#205
b10100 4
b10100 O
b11100 '
b11100 <
b100100 N
b0x00x00 !
b0x00x00 $
b100100 ;
b100100 V
b101 *
b101 F
b101 X
18
16
b100100 /
b100100 ?
b1000 &
b1000 =
b0 (
b0 E
b0 Y
b1000 .
b1000 G
b1000 W
b0 J
b1100011 0
b1100011 C
b1100011 ^
b1100011 D
0-
17
b11001 9
b11001 >
b11001 K
b1000 3
b1000 _
b101000010001100011 2
b101000010001100011 H
b101000010001100011 U
b101000010001100011 ]
b11100 S
b11100 :
1"
#210
0"
#215
b10010 +
b10010 B
b10010 Z
b11100 *
b11100 F
b11100 X
1-
b11000 &
b11000 =
b1110100011110000110010101010100 4
b1110100011110000110010101010100 O
b11000 )
b11000 A
b11000 P
b11000 [
b110 (
b110 E
b110 Y
b11100 .
b11100 G
b11100 W
b110011 0
b110011 C
b110011 ^
b110011 D
07
08
06
b11111111111111111111111111111111 3
b11111111111111111111111111111111 _
b101010 N
b0x0x0x0 !
b0x0x0x0 $
b101010 ;
b101010 V
b11011100000111000110011 2
b11011100000111000110011 H
b11011100000111000110011 U
b11011100000111000110011 ]
b101010 /
b101010 ?
b100000 S
b10010 '
b10010 <
b100000 :
1"
#220
0"
#225
b1 &
b1 =
b110 *
b110 F
b110 X
b1 3
b1 _
b100111 9
b100111 >
b100111 K
17
b11100000000000000000000000000000 4
b11100000000000000000000000000000 O
b0 )
b0 A
b0 P
b0 [
b1 (
b1 E
b1 Y
b110 .
b110 G
b110 W
b1 J
b10011 0
b10011 C
b10011 ^
b10011 D
1-
b110000 N
b0xx0000 !
b0xx0000 $
b110000 ;
b110000 V
b100110001001100010011 2
b100110001001100010011 H
b100110001001100010011 U
b100110001001100010011 ]
b110000 /
b110000 ?
b100100 S
b11000 '
b11000 <
b100100 :
b11000 +
b11000 B
b11000 Z
1"
#230
0"
#235
b1101100011011000110010101001000 4
b1101100011011000110010101001000 O
b111 *
b111 F
b111 X
b0 N
b0 !
b0 $
b0 ;
b0 V
b111 .
b111 G
b111 W
b101 J
1-
17
b101001 9
b101001 >
b101001 K
b0 /
b0 ?
b100111101001110010011 2
b100111101001110010011 H
b100111101001110010011 U
b100111101001110010011 ]
b1 '
b1 <
b101000 S
b1 +
b1 B
b1 Z
b101000 :
1"
#240
0"
#245
b1100111011011100110111101101100 4
b1100111011011100110111101101100 O
b11101 N
b0xxx0x !
b0xxx0x $
b11101 ;
b11101 V
b11101 /
b11101 ?
b1011 *
b1011 F
b1011 X
b11111111111111111111111111111111 &
b11111111111111111111111111111111 =
b11111 (
b11111 E
b11111 Y
b1011 .
b1011 G
b1011 W
b0 J
b1111111 I
1-
17
b11001 9
b11001 >
b11001 K
b11111111111111111111111111111111 3
b11111111111111111111111111111111 _
b11111111111101011000010110010011 2
b11111111111101011000010110010011 H
b11111111111101011000010110010011 U
b11111111111101011000010110010011 ]
b101100 S
b11110 '
b11110 <
b101100 :
b11110 +
b11110 B
b11110 Z
1"
#250
0"
#255
b100000011100110111001001100101 4
b100000011100110111001001100101 O
1%
b1 5
b1 @
b1 L
18
16
b11111111111111111111111111101000 &
b11111111111111111111111111101000 =
b11000 N
b0xx000 !
b0xx000 $
b11000 ;
b11000 V
b0 (
b0 E
b0 Y
b1001 .
b1001 G
b1001 W
b1 J
b1100011 0
b1100011 C
b1100011 ^
b1100011 D
0-
17
b11111111111111111111111111101000 3
b11111111111111111111111111101000 _
b11000 /
b11000 ?
b11111110000001011001010011100011 2
b11111110000001011001010011100011 H
b11111110000001011001010011100011 U
b11111110000001011001010011100011 ]
b110000 '
b110000 <
b110000 S
b11101 +
b11101 B
b11101 Z
b110000 :
1"
#260
0"
#265
b0 +
b0 B
b0 Z
b111 *
b111 F
b111 X
b11101 9
b11101 >
b11101 K
1-
0%
b1 &
b1 =
b1101100011011000110010101001000 4
b1101100011011000110010101001000 O
b1 (
b1 E
b1 Y
b101 .
b101 G
b101 W
b111 J
b0 I
b10011 0
b10011 C
b10011 ^
b10011 D
17
08
b0 5
b0 @
b0 L
06
b1 3
b1 _
b0 N
b0 !
b0 $
b0 ;
b0 V
b100111111001010010011 2
b100111111001010010011 H
b100111111001010010011 U
b100111111001010010011 ]
b0 /
b0 ?
b11000 S
b0 '
b0 <
b11000 :
1"
#270
0"
#275
b10100 4
b10100 O
b100100 N
b0x00x00 !
b0x00x00 $
b100100 ;
b100100 V
b100100 /
b100100 ?
b11100 '
b11100 <
1%
b101 *
b101 F
b101 X
18
16
b1000 &
b1000 =
b0 (
b0 E
b0 Y
b1000 .
b1000 G
b1000 W
b0 J
b1100011 0
b1100011 C
b1100011 ^
b1100011 D
0-
17
b11001 9
b11001 >
b11001 K
b1000 3
b1000 _
b101000010001100011 2
b101000010001100011 H
b101000010001100011 U
b101000010001100011 ]
b11100 S
b11100 :
1"
#280
0"
#285
b110000 +
b110000 B
b110000 Z
b110 *
b110 F
b110 X
b100111 9
b100111 >
b100111 K
1-
0%
b1 &
b1 =
b0 4
b0 O
b1 (
b1 E
b1 Y
b110 .
b110 G
b110 W
b1 J
b10011 0
b10011 C
b10011 ^
b10011 D
17
08
06
b1 3
b1 _
b1100000 N
b0xx00000 !
b0xx00000 $
b1100000 ;
b1100000 V
b100110001001100010011 2
b100110001001100010011 H
b100110001001100010011 U
b100110001001100010011 ]
b1100000 /
b1100000 ?
b100100 S
b110000 '
b110000 <
b100100 :
1"
#290
0"
#295
b1101100011011000110010101001000 4
b1101100011011000110010101001000 O
b111 *
b111 F
b111 X
b0 N
b0 !
b0 $
b0 ;
b0 V
b111 .
b111 G
b111 W
b101 J
1-
17
b101001 9
b101001 >
b101001 K
b0 /
b0 ?
b100111101001110010011 2
b100111101001110010011 H
b100111101001110010011 U
b100111101001110010011 ]
b0 '
b0 <
b101000 S
b0 +
b0 B
b0 Z
b101000 :
1"
#300
0"
#305
b1100111011011100110111101101100 4
b1100111011011100110111101101100 O
b11100 N
b0xxx00 !
b0xxx00 $
b11100 ;
b11100 V
b11101 '
b11101 <
b11100 /
b11100 ?
b11101 +
b11101 B
b11101 Z
b1011 *
b1011 F
b1011 X
b11111111111111111111111111111111 &
b11111111111111111111111111111111 =
b11111 (
b11111 E
b11111 Y
b1011 .
b1011 G
b1011 W
b0 J
b1111111 I
1-
17
b11001 9
b11001 >
b11001 K
b11111111111111111111111111111111 3
b11111111111111111111111111111111 _
b11111111111101011000010110010011 2
b11111111111101011000010110010011 H
b11111111111101011000010110010011 U
b11111111111101011000010110010011 ]
b101100 S
b101100 :
1"
#310
0"
#315
1%
b100000011100110111001001100101 4
b100000011100110111001001100101 O
b1 5
b1 @
b1 L
18
16
b11111111111111111111111111101000 &
b11111111111111111111111111101000 =
b11000 N
b0xx000 !
b0xx000 $
b11000 ;
b11000 V
b0 (
b0 E
b0 Y
b1001 .
b1001 G
b1001 W
b1 J
b1100011 0
b1100011 C
b1100011 ^
b1100011 D
0-
17
b11111111111111111111111111101000 3
b11111111111111111111111111101000 _
b11000 /
b11000 ?
b11111110000001011001010011100011 2
b11111110000001011001010011100011 H
b11111110000001011001010011100011 U
b11111110000001011001010011100011 ]
b110000 '
b110000 <
b110000 S
b11100 +
b11100 B
b11100 Z
b110000 :
1"
#320
0"
#325
b0 +
b0 B
b0 Z
b111 *
b111 F
b111 X
b11101 9
b11101 >
b11101 K
1-
0%
b1 &
b1 =
b1101100011011000110010101001000 4
b1101100011011000110010101001000 O
b1 (
b1 E
b1 Y
b101 .
b101 G
b101 W
b111 J
b0 I
b10011 0
b10011 C
b10011 ^
b10011 D
17
08
b0 5
b0 @
b0 L
06
b1 3
b1 _
b0 N
b0 !
b0 $
b0 ;
b0 V
b100111111001010010011 2
b100111111001010010011 H
b100111111001010010011 U
b100111111001010010011 ]
b0 /
b0 ?
b11000 S
b0 '
b0 <
b11000 :
1"
#330
0"
#335
b10100 4
b10100 O
b100100 N
b0x00x00 !
b0x00x00 $
b100100 ;
b100100 V
b100100 /
b100100 ?
b11100 '
b11100 <
1%
b101 *
b101 F
b101 X
18
16
b1000 &
b1000 =
b0 (
b0 E
b0 Y
b1000 .
b1000 G
b1000 W
b0 J
b1100011 0
b1100011 C
b1100011 ^
b1100011 D
0-
17
b11001 9
b11001 >
b11001 K
b1000 3
b1000 _
b101000010001100011 2
b101000010001100011 H
b101000010001100011 U
b101000010001100011 ]
b11100 S
b11100 :
1"
#340
0"
#345
b1100000 +
b1100000 B
b1100000 Z
b110 *
b110 F
b110 X
b100111 9
b100111 >
b100111 K
1-
0%
b1 &
b1 =
b0 4
b0 O
b1 (
b1 E
b1 Y
b110 .
b110 G
b110 W
b1 J
b10011 0
b10011 C
b10011 ^
b10011 D
17
08
06
b1 3
b1 _
b11000000 N
b0xx000000 !
b0xx000000 $
b11000000 ;
b11000000 V
b100110001001100010011 2
b100110001001100010011 H
b100110001001100010011 U
b100110001001100010011 ]
b11000000 /
b11000000 ?
b100100 S
b1100000 '
b1100000 <
b100100 :
1"
#350
0"
#355
b1101100011011000110010101001000 4
b1101100011011000110010101001000 O
b111 *
b111 F
b111 X
b0 N
b0 !
b0 $
b0 ;
b0 V
b111 .
b111 G
b111 W
b101 J
1-
17
b101001 9
b101001 >
b101001 K
b0 /
b0 ?
b100111101001110010011 2
b100111101001110010011 H
b100111101001110010011 U
b100111101001110010011 ]
b0 '
b0 <
b101000 S
b0 +
b0 B
b0 Z
b101000 :
1"
#360
0"
#365
b100000011100110111001001100101 4
b100000011100110111001001100101 O
b11011 N
b0xx0xx !
b0xx0xx $
b11011 ;
b11011 V
b11100 '
b11100 <
b11011 /
b11011 ?
b11100 +
b11100 B
b11100 Z
b1011 *
b1011 F
b1011 X
b11111111111111111111111111111111 &
b11111111111111111111111111111111 =
b11111 (
b11111 E
b11111 Y
b1011 .
b1011 G
b1011 W
b0 J
b1111111 I
1-
17
b11001 9
b11001 >
b11001 K
b11111111111111111111111111111111 3
b11111111111111111111111111111111 _
b11111111111101011000010110010011 2
b11111111111101011000010110010011 H
b11111111111101011000010110010011 U
b11111111111101011000010110010011 ]
b101100 S
b101100 :
1"
#370
0"
#375
b100000011100110111001001100101 4
b100000011100110111001001100101 O
1%
b1 5
b1 @
b1 L
18
16
b11111111111111111111111111101000 &
b11111111111111111111111111101000 =
b11000 N
b0xx000 !
b0xx000 $
b11000 ;
b11000 V
b0 (
b0 E
b0 Y
b1001 .
b1001 G
b1001 W
b1 J
b1100011 0
b1100011 C
b1100011 ^
b1100011 D
0-
17
b11111111111111111111111111101000 3
b11111111111111111111111111101000 _
b11000 /
b11000 ?
b11111110000001011001010011100011 2
b11111110000001011001010011100011 H
b11111110000001011001010011100011 U
b11111110000001011001010011100011 ]
b110000 '
b110000 <
b110000 S
b11011 +
b11011 B
b11011 Z
b110000 :
1"
#380
0"
#385
b0 +
b0 B
b0 Z
b111 *
b111 F
b111 X
b11101 9
b11101 >
b11101 K
1-
0%
b1 &
b1 =
b1101100011011000110010101001000 4
b1101100011011000110010101001000 O
b1 (
b1 E
b1 Y
b101 .
b101 G
b101 W
b111 J
b0 I
b10011 0
b10011 C
b10011 ^
b10011 D
17
08
b0 5
b0 @
b0 L
06
b1 3
b1 _
b0 N
b0 !
b0 $
b0 ;
b0 V
b100111111001010010011 2
b100111111001010010011 H
b100111111001010010011 U
b100111111001010010011 ]
b0 /
b0 ?
b11000 S
b0 '
b0 <
b11000 :
1"
#390
0"
#395
b10100 4
b10100 O
b100100 N
b0x00x00 !
b0x00x00 $
b100100 ;
b100100 V
b100100 /
b100100 ?
b11100 '
b11100 <
1%
b101 *
b101 F
b101 X
18
16
b1000 &
b1000 =
b0 (
b0 E
b0 Y
b1000 .
b1000 G
b1000 W
b0 J
b1100011 0
b1100011 C
b1100011 ^
b1100011 D
0-
17
b11001 9
b11001 >
b11001 K
b1000 3
b1000 _
b101000010001100011 2
b101000010001100011 H
b101000010001100011 U
b101000010001100011 ]
b11100 S
b11100 :
1"
#400
0"
#405
b11000000 +
b11000000 B
b11000000 Z
b110 *
b110 F
b110 X
b100111 9
b100111 >
b100111 K
1-
0%
b1 &
b1 =
b0 4
b0 O
b1 (
b1 E
b1 Y
b110 .
b110 G
b110 W
b1 J
b10011 0
b10011 C
b10011 ^
b10011 D
17
08
06
b1 3
b1 _
b110000000 N
b0xx0000000 !
b0xx0000000 $
b110000000 ;
b110000000 V
b100110001001100010011 2
b100110001001100010011 H
b100110001001100010011 U
b100110001001100010011 ]
b110000000 /
b110000000 ?
b100100 S
b11000000 '
b11000000 <
b100100 :
1"
#410
0"
#415
b1101100011011000110010101001000 4
b1101100011011000110010101001000 O
b111 *
b111 F
b111 X
b0 N
b0 !
b0 $
b0 ;
b0 V
b111 .
b111 G
b111 W
b101 J
1-
17
b101001 9
b101001 >
b101001 K
b0 /
b0 ?
b100111101001110010011 2
b100111101001110010011 H
b100111101001110010011 U
b100111101001110010011 ]
b0 '
b0 <
b101000 S
b0 +
b0 B
b0 Z
b101000 :
1"
#420
0"
#425
b100000011100110111001001100101 4
b100000011100110111001001100101 O
b11010 N
b0xx0x0 !
b0xx0x0 $
b11010 ;
b11010 V
b11011 '
b11011 <
b11010 /
b11010 ?
b11011 +
b11011 B
b11011 Z
b1011 *
b1011 F
b1011 X
b11111111111111111111111111111111 &
b11111111111111111111111111111111 =
b11111 (
b11111 E
b11111 Y
b1011 .
b1011 G
b1011 W
b0 J
b1111111 I
1-
17
b11001 9
b11001 >
b11001 K
b11111111111111111111111111111111 3
b11111111111111111111111111111111 _
b11111111111101011000010110010011 2
b11111111111101011000010110010011 H
b11111111111101011000010110010011 U
b11111111111101011000010110010011 ]
b101100 S
b101100 :
1"
#430
0"
#435
b100000011100110111001001100101 4
b100000011100110111001001100101 O
1%
b1 5
b1 @
b1 L
18
16
b11111111111111111111111111101000 &
b11111111111111111111111111101000 =
b11000 N
b0xx000 !
b0xx000 $
b11000 ;
b11000 V
b0 (
b0 E
b0 Y
b1001 .
b1001 G
b1001 W
b1 J
b1100011 0
b1100011 C
b1100011 ^
b1100011 D
0-
17
b11111111111111111111111111101000 3
b11111111111111111111111111101000 _
b11000 /
b11000 ?
b11111110000001011001010011100011 2
b11111110000001011001010011100011 H
b11111110000001011001010011100011 U
b11111110000001011001010011100011 ]
b110000 '
b110000 <
b110000 S
b11010 +
b11010 B
b11010 Z
b110000 :
1"
#440
0"
#445
b0 +
b0 B
b0 Z
b111 *
b111 F
b111 X
b11101 9
b11101 >
b11101 K
1-
0%
b1 &
b1 =
b1101100011011000110010101001000 4
b1101100011011000110010101001000 O
b1 (
b1 E
b1 Y
b101 .
b101 G
b101 W
b111 J
b0 I
b10011 0
b10011 C
b10011 ^
b10011 D
17
08
b0 5
b0 @
b0 L
06
b1 3
b1 _
b0 N
b0 !
b0 $
b0 ;
b0 V
b100111111001010010011 2
b100111111001010010011 H
b100111111001010010011 U
b100111111001010010011 ]
b0 /
b0 ?
b11000 S
b0 '
b0 <
b11000 :
1"
#450
0"
