RVMLabs/lab2/RV32I_external_memories/tb_SYS.vcd
$date
	Sat Nov 16 15:32:33 2024
$end
$version
	Icarus Verilog
$end
$timescale
	1ps
$end
$scope module tb_SYS $end
$var reg 1 ! clk $end
$var reg 1 " reset $end
$scope module uut $end
$var wire 32 # REGData1 [31:0] $end
$var wire 32 $ REGData2 [31:0] $end
$var wire 1 % TakeBranch $end
$var wire 1 ! clk $end
$var wire 1 " reset $end
$var wire 32 & nextPC [31:0] $end
$var wire 32 ' mem_data [31:0] $end
$var wire 32 ( instruction [31:0] $end
$var wire 7 ) funct7 [6:0] $end
$var wire 3 * funct3 [2:0] $end
$var wire 32 + Uimm [31:0] $end
$var wire 1 , System $end
$var wire 1 - Store $end
$var wire 5 . SourceRegister2 [4:0] $end
$var wire 5 / SourceRegister1 [4:0] $end
$var wire 32 0 Simm [31:0] $end
$var wire 1 1 Load $end
$var wire 1 2 LUI $end
$var wire 32 3 Jimm [31:0] $end
$var wire 1 4 JALR $end
$var wire 1 5 JAL $end
$var wire 32 6 Iimm [31:0] $end
$var wire 5 7 DestinationRegister [4:0] $end
$var wire 1 8 Branch $end
$var wire 32 9 Bimm [31:0] $end
$var wire 1 : AUIPC $end
$var wire 1 ; ALUReg $end
$var wire 32 < ALUOut [31:0] $end
$var wire 1 = ALUImmediate $end
$var reg 32 > PC [31:0] $end
$scope module alu $end
$var wire 32 ? ALUREGVAl2 [31:0] $end
$var wire 32 @ ALUVAL1 [31:0] $end
$var wire 32 A instruction [31:0] $end
$var wire 7 B funct7 [6:0] $end
$var wire 3 C funct3 [2:0] $end
$var wire 32 D Iimm [31:0] $end
$var wire 1 ; ALUReg $end
$var wire 32 E ALUOperand2 [31:0] $end
$var wire 1 = ALUImmediate $end
$var reg 32 F ALUOut [31:0] $end
$upscope $end
$scope module decoder $end
$var wire 7 G opcode [6:0] $end
$var wire 32 H instruction [31:0] $end
$var wire 7 I funct7 [6:0] $end
$var wire 3 J funct3 [2:0] $end
$var wire 32 K Uimm [31:0] $end
$var wire 1 , System $end
$var wire 1 - Store $end
$var wire 5 L SourceRegister2 [4:0] $end
$var wire 5 M SourceRegister1 [4:0] $end
$var wire 32 N Simm [31:0] $end
$var wire 1 1 Load $end
$var wire 1 2 LUI $end
$var wire 32 O Jimm [31:0] $end
$var wire 1 4 JALR $end
$var wire 1 5 JAL $end
$var wire 32 P Iimm [31:0] $end
$var wire 5 Q DestinationRegister [4:0] $end
$var wire 1 8 Branch $end
$var wire 32 R Bimm [31:0] $end
$var wire 1 : AUIPC $end
$var wire 1 ; ALUReg $end
$var wire 1 = ALUImmediate $end
$upscope $end
$scope module inst_mem $end
$var wire 32 S addr [31:0] $end
$var wire 32 T instruction [31:0] $end
$upscope $end
$scope module sys_mem $end
$var wire 1 1 MemRead $end
$var wire 1 - MemWrite $end
$var wire 32 U addr [31:0] $end
$var wire 1 ! clk $end
$var wire 32 V write_data [31:0] $end
$var reg 32 W read_data [31:0] $end
$upscope $end
$upscope $end
$upscope $end
$enddefinitions $end
$comment Show the parameter values. $end
$dumpall
$end
#10000
$dumpvars
b0 W
b0 V
b0 U
b10010011 T
b0 S
b100000000000 R
b1 Q
b0 P
b0 O
b1 N
b0 M
b0 L
b0 K
b0 J
b0 I
b10010011 H
b10011 G
b0 F
b0 E
b0 D
b0 C
b0 B
b10010011 A
b0 @
b0 ?
b0 >
1=
b0 <
0;
0:
b100000000000 9
08
b1 7
b0 6
05
04
b0 3
02
01
b1 0
b0 /
b0 .
0-
0,
b0 +
b0 *
b0 )
b10010011 (
b0 '
b100 &
0%
b0 $
b0 #
0"
0!
$end
#15000
b1 <
b1 F
b1 U
b1 E
b1000 &
b100000000000 3
b100000000000 O
b100000000000000000000 +
b100000000000000000000 K
b10 9
b10 R
b10 0
b10 N
b1 6
b1 D
b1 P
b10 7
b10 Q
b1 .
b1 L
b100000000000100010011 (
b100000000000100010011 A
b100000000000100010011 H
b100000000000100010011 T
b100 >
b100 S
1!
#20000
0!
#25000
b10 <
b10 F
b10 U
b10 E
b1100 &
b10 3
b10 O
b1000000000000000000000 +
b1000000000000000000000 K
b100000000010 9
b100000000010 R
b11 0
b11 N
b10 6
b10 D
b10 P
b11 7
b11 Q
b1 $
b1 ?
b1 V
b10 .
b10 L
b1000000000000110010011 (
b1000000000000110010011 A
b1000000000000110010011 H
b1000000000000110010011 T
b1000 >
b1000 S
1!
#30000
0!
#35000
b10000 &
b100 <
b100 F
b100 U
b11000100000000010 3
b11000100000000010 O
b1100011000000000000000 +
b1100011000000000000000 K
b100 9
b100 R
b100 0
b100 N
b11 6
b11 D
b11 P
b100 7
b100 Q
b10 $
b10 ?
b10 V
b11 .
b11 L
b10 #
b10 @
b11 /
b11 M
1;
0=
b110011 G
b1100011000001000110011 (
b1100011000001000110011 A
b1100011000001000110011 H
b1100011000001000110011 T
b1100 >
b1100 S
1!
#40000
0!
#45000
b10100 &
b0 E
b0 <
b0 F
b0 U
b0 3
b0 O
b0 +
b0 K
b100000000100 9
b100000000100 R
b101 0
b101 N
b0 6
b0 D
b0 P
b101 7
b101 Q
b0 $
b0 ?
b0 V
b0 .
b0 L
b0 #
b0 @
b0 /
b0 M
b1010110011 (
b1010110011 A
b1010110011 H
b1010110011 T
b10000 >
b10000 S
1!
#50000
0!
#55000
b11100 &
b1000 3
b1000 O
b100000000000000000000000 +
b100000000000000000000000 K
b100000000000 9
b100000000000 R
b1 0
b1 N
b1000 6
b1000 D
b1000 P
b1 7
b1 Q
b1000 .
b1000 L
0;
15
b1101111 G
b100000000000000011101111 (
b100000000000000011101111 A
b100000000000000011101111 H
b100000000000000011101111 T
b10100 >
b10100 S
1!
#60000
0!
#65000
b101 <
b101 F
b101 U
b101 E
b100000 &
b100000000100 3
b100000000100 O
b10100000000000000000000 +
b10100000000000000000000 K
b100000000100 9
b100000000100 R
b101 0
b101 N
b101 6
b101 D
b101 P
b101 7
b101 Q
b101 .
b101 L
1=
05
b10011 G
b10100000000001010010011 (
b10100000000001010010011 A
b10100000000001010010011 H
b10100000000001010010011 T
b11100 >
b11100 S
1!
#70000
0!
#75000
b100100 &
b110000100000000100 3
b110000100000000100 O
b10100110000000000000000 +
b10100110000000000000000 K
b110 9
b110 R
b110 0
b110 N
b110 7
b110 Q
b110 /
b110 M
1;
0=
b110011 G
b10100110000001100110011 (
b10100110000001100110011 A
b10100110000001100110011 H
b10100110000001100110011 T
b101 $
b101 ?
b101 V
b100000 >
b100000 S
1!
#80000
0!
#85000
b101000 &
b0 E
b1010100000110010 3
b1010100000110010 O
b11001100001010000000000000 +
b11001100001010000000000000 K
b100000 9
b100000 R
b100000 0
b100000 N
b110011 6
b110011 D
b110011 P
b0 7
b0 Q
b0 $
b0 ?
b0 V
b10011 .
b10011 L
b1 /
b1 M
b1 )
b1 B
b1 I
b10 *
b10 C
b10 J
0;
1-
b100011 G
b0 <
b0 F
b0 U
b11001100001010000000100011 (
b11001100001010000000100011 A
b11001100001010000000100011 H
b11001100001010000000100011 T
b11000 #
b11000 @
b100100 >
b100100 S
1!
#90000
0!
#95000
b101100 &
b1010100001100110 3
b1010100001100110 O
b110011100001010000000000000 +
b110011100001010000000000000 K
b1100000 9
b1100000 R
b1100000 0
b1100000 N
b1100111 6
b1100111 D
b1100111 P
b111 .
b111 L
b11 )
b11 B
b11 I
b110011100001010000000100011 (
b110011100001010000000100011 A
b110011100001010000000100011 H
b110011100001010000000100011 T
b101000 >
b101000 S
1!
#100000
0!
#105000
b110000 &
b1010100001101110 3
b1010100001101110 O
b110111100001010000000000000 +
b110111100001010000000000000 K
b1101111 6
b1101111 D
b1101111 P
b1111 .
b1111 L
b110111100001010000000100011 (
b110111100001010000000100011 A
b110111100001010000000100011 H
b110111100001010000000100011 T
b101100 >
b101100 S
1!
#110000
0!
#115000
b110100 &
b1010100001001110 3
b1010100001001110 O
b100111100001010000000000000 +
b100111100001010000000000000 K
b1000000 9
b1000000 R
b1000000 0
b1000000 N
b1001111 6
b1001111 D
b1001111 P
b10 )
b10 B
b10 I
b100111100001010000000100011 (
b100111100001010000000100011 A
b100111100001010000000100011 H
b100111100001010000000100011 T
b110000 >
b110000 S
1!
#120000
0!
#125000
b111000 &
b1010100000110010 3
b1010100000110010 O
b11001100001010000000000000 +
b11001100001010000000000000 K
b100000 9
b100000 R
b100000 0
b100000 N
b110011 6
b110011 D
b110011 P
b10011 .
b10011 L
b1 )
b1 B
b1 I
b11001100001010000000100011 (
b11001100001010000000100011 A
b11001100001010000000100011 H
b11001100001010000000100011 T
b110100 >
b110100 S
1!
#130000
0!
#135000
b111100 &
b1010100001100110 3
b1010100001100110 O
b110011100001010000000000000 +
b110011100001010000000000000 K
b1100000 9
b1100000 R
b1100000 0
b1100000 N
b1100111 6
b1100111 D
b1100111 P
b111 .
b111 L
b11 )
b11 B
b11 I
b110011100001010000000100011 (
b110011100001010000000100011 A
b110011100001010000000100011 H
b110011100001010000000100011 T
b111000 >
b111000 S
1!
#140000
0!
#145000
b1000000 &
b1010100001101110 3
b1010100001101110 O
b110111100001010000000000000 +
b110111100001010000000000000 K
b1101111 6
b1101111 D
b1101111 P
b1111 .
b1111 L
b110111100001010000000100011 (
b110111100001010000000100011 A
b110111100001010000000100011 H
b110111100001010000000100011 T
b111100 >
b111100 S
1!
#150000
0!
#155000
bx &
bx E
bx0 3
bx0 O
bx000000000000 +
bx000000000000 K
bx0 9
bx0 R
bx 0
bx N
bx 6
bx D
bx P
bx 7
bx Q
bx $
bx ?
bx V
bx .
bx L
bx #
bx @
bx /
bx M
bx )
bx B
bx I
bx *
bx C
bx J
x;
x=
x8
x4
x5
x:
x2
x1
x-
x,
bx G
bx (
bx A
bx H
bx T
b1000000 >
b1000000 S
1!
#160000
0!
#165000
bx >
bx S
1!
